Ph 411/Lab-2-data/part 4/ALL0002/F0002CH2.CSV

Record Length,2.500000e+03,,   0.005649000000,   1.08000,
Sample Interval,1.000000e-06,,   0.005650000000,   1.12000,
Trigger Point,-5.649000000000e+03,,   0.005651000000,   1.08000,
,,,   0.005652000000,   1.04000,
,,,   0.005653000000,   1.08000,
,,,   0.005654000000,   1.04000,
Source,CH2,,   0.005655000000,   1.04000,
Vertical Units,V,,   0.005656000000,   1.00000,
Vertical Scale,1.000000e+00,,   0.005657000000,   1.00000,
Vertical Offset,-3.600000e-01,,   0.005658000000,   1.04000,
Horizontal Units,s,,   0.005659000000,   1.00000,
Horizontal Scale,2.500000e-04,,   0.005660000000,   1.00000,
Pt Fmt,Y,,   0.005661000000,   1.00000,
Yzero,0.000000e+00,,   0.005662000000,   1.00000,
Probe Atten,1.000000e+01,,   0.005663000000,   0.96000,
Model Number,TDS1012B,,   0.005664000000,   0.96000,
Serial Number,C055216,,   0.005665000000,   0.96000,
Firmware Version,FV:v22.16,,   0.005666000000,   0.92000,
,,,0.005667000000,   0.92000,
,,,0.005668000000,   0.92000,
,,,0.005669000000,   0.92000,
,,,0.005670000000,   0.92000,
,,,0.005671000000,   0.88000,
,,,0.005672000000,   0.88000,
,,,0.005673000000,   0.84000,
,,,0.005674000000,   0.88000,
,,,0.005675000000,   0.84000,
,,,0.005676000000,   0.84000,
,,,0.005677000000,   0.84000,
,,,0.005678000000,   0.84000,
,,,0.005679000000,   0.84000,
,,,0.005680000000,   0.84000,
,,,0.005681000000,   0.84000,
,,,0.005682000000,   0.80000,
,,,0.005683000000,   0.80000,
,,,0.005684000000,   0.80000,
,,,0.005685000000,   0.76000,
,,,0.005686000000,   0.76000,
,,,0.005687000000,   0.76000,
,,,0.005688000000,   0.76000,
,,,0.005689000000,   0.76000,
,,,0.005690000000,   0.76000,
,,,0.005691000000,   0.72000,
,,,0.005692000000,   0.72000,
,,,0.005693000000,   0.72000,
,,,0.005694000000,   0.72000,
,,,0.005695000000,   0.68000,
,,,0.005696000000,   0.68000,
,,,0.005697000000,   0.68000,
,,,0.005698000000,   0.68000,
,,,0.005699000000,   0.68000,
,,,0.005700000000,   0.68000,
,,,0.005701000000,   0.68000,
,,,0.005702000000,   0.64000,
,,,0.005703000000,   0.68000,
,,,0.005704000000,   0.64000,
,,,0.005705000000,   0.64000,
,,,0.005706000000,   0.64000,
,,,0.005707000000,   0.64000,
,,,0.005708000000,   0.60000,
,,,0.005709000000,   0.64000,
,,,0.005710000000,   0.60000,
,,,0.005711000000,   0.60000,
,,,0.005712000000,   0.60000,
,,,0.005713000000,   0.60000,
,,,0.005714000000,   0.60000,
,,,0.005715000000,   0.60000,
,,,0.005716000000,   0.56000,
,,,0.005717000000,   0.56000,
,,,0.005718000000,   0.56000,
,,,0.005719000000,   0.56000,
,,,0.005720000000,   0.52000,
,,,0.005721000000,   0.56000,
,,,0.005722000000,   0.52000,
,,,0.005723000000,   0.52000,
,,,0.005724000000,   0.52000,
,,,0.005725000000,   0.52000,
,,,0.005726000000,   0.52000,
,,,0.005727000000,   0.52000,
,,,0.005728000000,   0.52000,
,,,0.005729000000,   0.52000,
,,,0.005730000000,   0.52000,
,,,0.005731000000,   0.52000,
,,,0.005732000000,   0.48000,
,,,0.005733000000,   0.48000,
,,,0.005734000000,   0.48000,
,,,0.005735000000,   0.48000,
,,,0.005736000000,   0.48000,
,,,0.005737000000,   0.48000,
,,,0.005738000000,   0.48000,
,,,0.005739000000,   0.48000,
,,,0.005740000000,   0.44000,
,,,0.005741000000,   0.44000,
,,,0.005742000000,   0.44000,
,,,0.005743000000,   0.44000,
,,,0.005744000000,   0.48000,
,,,0.005745000000,   0.44000,
,,,0.005746000000,   0.44000,
,,,0.005747000000,   0.44000,
,,,0.005748000000,   0.44000,
,,,0.005749000000,   0.44000,
,,,0.005750000000,   0.44000,
,,,0.005751000000,   0.40000,
,,,0.005752000000,   0.40000,
,,,0.005753000000,   0.40000,
,,,0.005754000000,   0.40000,
,,,0.005755000000,   0.40000,
,,,0.005756000000,   0.40000,
,,,0.005757000000,   0.36000,
,,,0.005758000000,   0.40000,
,,,0.005759000000,   0.36000,
,,,0.005760000000,   0.36000,
,,,0.005761000000,   0.36000,
,,,0.005762000000,   0.36000,
,,,0.005763000000,   0.36000,
,,,0.005764000000,   0.36000,
,,,0.005765000000,   0.36000,
,,,0.005766000000,   0.36000,
,,,0.005767000000,   0.36000,
,,,0.005768000000,   0.36000,
,,,0.005769000000,   0.36000,
,,,0.005770000000,   0.36000,
,,,0.005771000000,   0.36000,
,,,0.005772000000,   0.36000,
,,,0.005773000000,   0.36000,
,,,0.005774000000,   0.32000,
,,,0.005775000000,   0.32000,
,,,0.005776000000,   0.36000,
,,,0.005777000000,   0.32000,
,,,0.005778000000,   0.32000,
,,,0.005779000000,   0.32000,
,,,0.005780000000,   0.32000,
,,,0.005781000000,   0.32000,
,,,0.005782000000,   0.32000,
,,,0.005783000000,   0.28000,
,,,0.005784000000,   0.32000,
,,,0.005785000000,   0.28000,
,,,0.005786000000,   0.32000,
,,,0.005787000000,   0.32000,
,,,0.005788000000,   0.28000,
,,,0.005789000000,   0.28000,
,,,0.005790000000,   0.28000,
,,,0.005791000000,   0.24000,
,,,0.005792000000,   0.28000,
,,,0.005793000000,   0.28000,
,,,0.005794000000,   0.28000,
,,,0.005795000000,   0.28000,
,,,0.005796000000,   0.24000,
,,,0.005797000000,   0.28000,
,,,0.005798000000,   0.28000,
,,,0.005799000000,   0.24000,
,,,0.005800000000,   0.28000,
,,,0.005801000000,   0.24000,
,,,0.005802000000,   0.24000,
,,,0.005803000000,   0.24000,
,,,0.005804000000,   0.24000,
,,,0.005805000000,   0.24000,
,,,0.005806000000,   0.24000,
,,,0.005807000000,   0.24000,
,,,0.005808000000,   0.24000,
,,,0.005809000000,   0.24000,
,,,0.005810000000,   0.24000,
,,,0.005811000000,   0.24000,
,,,0.005812000000,   0.24000,
,,,0.005813000000,   0.24000,
,,,0.005814000000,   0.20000,
,,,0.005815000000,   0.24000,
,,,0.005816000000,   0.20000,
,,,0.005817000000,   0.20000,
,,,0.005818000000,   0.24000,
,,,0.005819000000,   0.20000,
,,,0.005820000000,   0.20000,
,,,0.005821000000,   0.20000,
,,,0.005822000000,   0.20000,
,,,0.005823000000,   0.20000,
,,,0.005824000000,   0.20000,
,,,0.005825000000,   0.20000,
,,,0.005826000000,   0.20000,
,,,0.005827000000,   0.20000,
,,,0.005828000000,   0.20000,
,,,0.005829000000,   0.20000,
,,,0.005830000000,   0.20000,
,,,0.005831000000,   0.20000,
,,,0.005832000000,   0.20000,
,,,0.005833000000,   0.20000,
,,,0.005834000000,   0.20000,
,,,0.005835000000,   0.20000,
,,,0.005836000000,   0.20000,
,,,0.005837000000,   0.20000,
,,,0.005838000000,   0.20000,
,,,0.005839000000,   0.16000,
,,,0.005840000000,   0.20000,
,,,0.005841000000,   0.16000,
,,,0.005842000000,   0.20000,
,,,0.005843000000,   0.20000,
,,,0.005844000000,   0.20000,
,,,0.005845000000,   0.16000,
,,,0.005846000000,   0.16000,
,,,0.005847000000,   0.20000,
,,,0.005848000000,   0.16000,
,,,0.005849000000,   0.16000,
,,,0.005850000000,   0.16000,
,,,0.005851000000,   0.16000,
,,,0.005852000000,   0.16000,
,,,0.005853000000,   0.16000,
,,,0.005854000000,   0.16000,
,,,0.005855000000,   0.16000,
,,,0.005856000000,   0.16000,
,,,0.005857000000,   0.16000,
,,,0.005858000000,   0.16000,
,,,0.005859000000,   0.16000,
,,,0.005860000000,   0.16000,
,,,0.005861000000,   0.16000,
,,,0.005862000000,   0.16000,
,,,0.005863000000,   0.12000,
,,,0.005864000000,   0.16000,
,,,0.005865000000,   0.16000,
,,,0.005866000000,   0.16000,
,,,0.005867000000,   0.16000,
,,,0.005868000000,   0.16000,
,,,0.005869000000,   0.12000,
,,,0.005870000000,   0.12000,
,,,0.005871000000,   0.16000,
,,,0.005872000000,   0.16000,
,,,0.005873000000,   0.12000,
,,,0.005874000000,   0.12000,
,,,0.005875000000,   0.12000,
,,,0.005876000000,   0.16000,
,,,0.005877000000,   0.16000,
,,,0.005878000000,   0.12000,
,,,0.005879000000,   0.12000,
,,,0.005880000000,   0.12000,
,,,0.005881000000,   0.16000,
,,,0.005882000000,   0.12000,
,,,0.005883000000,   0.12000,
,,,0.005884000000,   0.12000,
,,,0.005885000000,   0.12000,
,,,0.005886000000,   0.12000,
,,,0.005887000000,   0.12000,
,,,0.005888000000,   0.12000,
,,,0.005889000000,   0.12000,
,,,0.005890000000,   0.12000,
,,,0.005891000000,   0.12000,
,,,0.005892000000,   0.12000,
,,,0.005893000000,   0.08000,
,,,0.005894000000,   0.12000,
,,,0.005895000000,   0.12000,
,,,0.005896000000,   0.08000,
,,,0.005897000000,   0.12000,
,,,0.005898000000,   0.12000,
,,,0.005899000000,   0.12000,
,,,0.005900000000,   0.12000,
,,,0.005901000000,   0.12000,
,,,0.005902000000,   0.12000,
,,,0.005903000000,   0.12000,
,,,0.005904000000,   0.12000,
,,,0.005905000000,   0.12000,
,,,0.005906000000,   0.08000,
,,,0.005907000000,   0.12000,
,,,0.005908000000,   0.12000,
,,,0.005909000000,   0.12000,
,,,0.005910000000,   0.12000,
,,,0.005911000000,   0.08000,
,,,0.005912000000,   0.08000,
,,,0.005913000000,   0.08000,
,,,0.005914000000,   0.08000,
,,,0.005915000000,   0.12000,
,,,0.005916000000,   0.12000,
,,,0.005917000000,   0.08000,
,,,0.005918000000,   0.08000,
,,,0.005919000000,   0.12000,
,,,0.005920000000,   0.08000,
,,,0.005921000000,   0.08000,
,,,0.005922000000,   0.08000,
,,,0.005923000000,   0.08000,
,,,0.005924000000,   0.08000,
,,,0.005925000000,   0.08000,
,,,0.005926000000,   0.08000,
,,,0.005927000000,   0.08000,
,,,0.005928000000,   0.08000,
,,,0.005929000000,   0.08000,
,,,0.005930000000,   0.08000,
,,,0.005931000000,   0.04000,
,,,0.005932000000,   0.08000,
,,,0.005933000000,   0.08000,
,,,0.005934000000,   0.08000,
,,,0.005935000000,   0.08000,
,,,0.005936000000,   0.08000,
,,,0.005937000000,   0.08000,
,,,0.005938000000,   0.08000,
,,,0.005939000000,   0.08000,
,,,0.005940000000,   0.12000,
,,,0.005941000000,   0.08000,
,,,0.005942000000,   0.08000,
,,,0.005943000000,   0.08000,
,,,0.005944000000,   0.08000,
,,,0.005945000000,   0.08000,
,,,0.005946000000,   0.08000,
,,,0.005947000000,   0.08000,
,,,0.005948000000,   0.08000,
,,,0.005949000000,   0.08000,
,,,0.005950000000,   0.04000,
,,,0.005951000000,   0.08000,
,,,0.005952000000,   0.08000,
,,,0.005953000000,   0.04000,
,,,0.005954000000,   0.08000,
,,,0.005955000000,   0.04000,
,,,0.005956000000,   0.04000,
,,,0.005957000000,   0.04000,
,,,0.005958000000,   0.08000,
,,,0.005959000000,   0.04000,
,,,0.005960000000,   0.08000,
,,,0.005961000000,   0.08000,
,,,0.005962000000,   0.04000,
,,,0.005963000000,   0.04000,
,,,0.005964000000,   0.08000,
,,,0.005965000000,   0.08000,
,,,0.005966000000,   0.04000,
,,,0.005967000000,   0.08000,
,,,0.005968000000,   0.08000,
,,,0.005969000000,   0.08000,
,,,0.005970000000,   0.08000,
,,,0.005971000000,   0.04000,
,,,0.005972000000,   0.08000,
,,,0.005973000000,   0.04000,
,,,0.005974000000,   0.08000,
,,,0.005975000000,   0.08000,
,,,0.005976000000,   0.04000,
,,,0.005977000000,   0.08000,
,,,0.005978000000,   0.04000,
,,,0.005979000000,   0.04000,
,,,0.005980000000,   0.08000,
,,,0.005981000000,   0.04000,
,,,0.005982000000,   0.04000,
,,,0.005983000000,   0.04000,
,,,0.005984000000,   0.04000,
,,,0.005985000000,   0.04000,
,,,0.005986000000,   0.04000,
,,,0.005987000000,   0.04000,
,,,0.005988000000,   0.04000,
,,,0.005989000000,   0.04000,
,,,0.005990000000,   0.04000,
,,,0.005991000000,   0.04000,
,,,0.005992000000,   0.04000,
,,,0.005993000000,   0.08000,
,,,0.005994000000,   0.04000,
,,,0.005995000000,   0.08000,
,,,0.005996000000,   0.04000,
,,,0.005997000000,   0.04000,
,,,0.005998000000,   0.04000,
,,,0.005999000000,   0.04000,
,,,0.006000000000,   0.04000,
,,,0.006001000000,  -4.72000,
,,,0.006002000000,  -4.72000,
,,,0.006003000000,  -4.72000,
,,,0.006004000000,  -4.64000,
,,,0.006005000000,  -4.64000,
,,,0.006006000000,  -4.60000,
,,,0.006007000000,  -4.56000,
,,,0.006008000000,  -4.52000,
,,,0.006009000000,  -4.48000,
,,,0.006010000000,  -4.40000,
,,,0.006011000000,  -4.36000,
,,,0.006012000000,  -4.36000,
,,,0.006013000000,  -4.28000,
,,,0.006014000000,  -4.24000,
,,,0.006015000000,  -4.24000,
,,,0.006016000000,  -4.20000,
,,,0.006017000000,  -4.12000,
,,,0.006018000000,  -4.08000,
,,,0.006019000000,  -4.04000,
,,,0.006020000000,  -4.00000,
,,,0.006021000000,  -4.00000,
,,,0.006022000000,  -3.96000,
,,,0.006023000000,  -3.88000,
,,,0.006024000000,  -3.84000,
,,,0.006025000000,  -3.80000,
,,,0.006026000000,  -3.76000,
,,,0.006027000000,  -3.72000,
,,,0.006028000000,  -3.68000,
,,,0.006029000000,  -3.64000,
,,,0.006030000000,  -3.64000,
,,,0.006031000000,  -3.56000,
,,,0.006032000000,  -3.56000,
,,,0.006033000000,  -3.52000,
,,,0.006034000000,  -3.48000,
,,,0.006035000000,  -3.44000,
,,,0.006036000000,  -3.40000,
,,,0.006037000000,  -3.36000,
,,,0.006038000000,  -3.32000,
,,,0.006039000000,  -3.32000,
,,,0.006040000000,  -3.28000,
,,,0.006041000000,  -3.24000,
,,,0.006042000000,  -3.20000,
,,,0.006043000000,  -3.20000,
,,,0.006044000000,  -3.16000,
,,,0.006045000000,  -3.12000,
,,,0.006046000000,  -3.08000,
,,,0.006047000000,  -3.04000,
,,,0.006048000000,  -3.04000,
,,,0.006049000000,  -3.00000,
,,,0.006050000000,  -2.96000,
,,,0.006051000000,  -2.96000,
,,,0.006052000000,  -2.88000,
,,,0.006053000000,  -2.88000,
,,,0.006054000000,  -2.84000,
,,,0.006055000000,  -2.80000,
,,,0.006056000000,  -2.80000,
,,,0.006057000000,  -2.76000,
,,,0.006058000000,  -2.72000,
,,,0.006059000000,  -2.72000,
,,,0.006060000000,  -2.68000,
,,,0.006061000000,  -2.68000,
,,,0.006062000000,  -2.60000,
,,,0.006063000000,  -2.60000,
,,,0.006064000000,  -2.56000,
,,,0.006065000000,  -2.56000,
,,,0.006066000000,  -2.52000,
,,,0.006067000000,  -2.48000,
,,,0.006068000000,  -2.44000,
,,,0.006069000000,  -2.44000,
,,,0.006070000000,  -2.40000,
,,,0.006071000000,  -2.40000,
,,,0.006072000000,  -2.40000,
,,,0.006073000000,  -2.32000,
,,,0.006074000000,  -2.32000,
,,,0.006075000000,  -2.32000,
,,,0.006076000000,  -2.28000,
,,,0.006077000000,  -2.24000,
,,,0.006078000000,  -2.24000,
,,,0.006079000000,  -2.20000,
,,,0.006080000000,  -2.20000,
,,,0.006081000000,  -2.12000,
,,,0.006082000000,  -2.16000,
,,,0.006083000000,  -2.12000,
,,,0.006084000000,  -2.08000,
,,,0.006085000000,  -2.08000,
,,,0.006086000000,  -2.04000,
,,,0.006087000000,  -2.04000,
,,,0.006088000000,  -2.00000,
,,,0.006089000000,  -2.00000,
,,,0.006090000000,  -2.00000,
,,,0.006091000000,  -1.96000,
,,,0.006092000000,  -1.92000,
,,,0.006093000000,  -1.92000,
,,,0.006094000000,  -1.88000,
,,,0.006095000000,  -1.84000,
,,,0.006096000000,  -1.84000,
,,,0.006097000000,  -1.84000,
,,,0.006098000000,  -1.80000,
,,,0.006099000000,  -1.80000,
,,,0.006100000000,  -1.76000,
,,,0.006101000000,  -1.76000,
,,,0.006102000000,  -1.72000,
,,,0.006103000000,  -1.72000,
,,,0.006104000000,  -1.68000,
,,,0.006105000000,  -1.68000,
,,,0.006106000000,  -1.68000,
,,,0.006107000000,  -1.60000,
,,,0.006108000000,  -1.64000,
,,,0.006109000000,  -1.64000,
,,,0.006110000000,  -1.60000,
,,,0.006111000000,  -1.60000,
,,,0.006112000000,  -1.56000,
,,,0.006113000000,  -1.56000,
,,,0.006114000000,  -1.52000,
,,,0.006115000000,  -1.52000,
,,,0.006116000000,  -1.48000,
,,,0.006117000000,  -1.52000,
,,,0.006118000000,  -1.48000,
,,,0.006119000000,  -1.48000,
,,,0.006120000000,  -1.44000,
,,,0.006121000000,  -1.40000,
,,,0.006122000000,  -1.44000,
,,,0.006123000000,  -1.40000,
,,,0.006124000000,  -1.40000,
,,,0.006125000000,  -1.36000,
,,,0.006126000000,  -1.36000,
,,,0.006127000000,  -1.36000,
,,,0.006128000000,  -1.36000,
,,,0.006129000000,  -1.32000,
,,,0.006130000000,  -1.32000,
,,,0.006131000000,  -1.28000,
,,,0.006132000000,  -1.28000,
,,,0.006133000000,  -1.28000,
,,,0.006134000000,  -1.28000,
,,,0.006135000000,  -1.24000,
,,,0.006136000000,  -1.24000,
,,,0.006137000000,  -1.24000,
,,,0.006138000000,  -1.20000,
,,,0.006139000000,  -1.20000,
,,,0.006140000000,  -1.20000,
,,,0.006141000000,  -1.16000,
,,,0.006142000000,  -1.12000,
,,,0.006143000000,  -1.16000,
,,,0.006144000000,  -1.12000,
,,,0.006145000000,  -1.12000,
,,,0.006146000000,  -1.12000,
,,,0.006147000000,  -1.08000,
,,,0.006148000000,  -1.08000,
,,,0.006149000000,  -1.08000,
,,,0.006150000000,  -1.08000,
,,,0.006151000000,  -1.08000,
,,,0.006152000000,  -1.04000,
,,,0.006153000000,  -1.00000,
,,,0.006154000000,  -1.04000,
,,,0.006155000000,  -1.00000,
,,,0.006156000000,  -0.96000,
,,,0.006157000000,  -0.96000,
,,,0.006158000000,  -0.96000,
,,,0.006159000000,  -0.96000,
,,,0.006160000000,  -0.96000,
,,,0.006161000000,  -0.96000,
,,,0.006162000000,  -0.92000,
,,,0.006163000000,  -0.92000,
,,,0.006164000000,  -0.92000,
,,,0.006165000000,  -0.92000,
,,,0.006166000000,  -0.92000,
,,,0.006167000000,  -0.88000,
,,,0.006168000000,  -0.88000,
,,,0.006169000000,  -0.88000,
,,,0.006170000000,  -0.88000,
,,,0.006171000000,  -0.84000,
,,,0.006172000000,  -0.84000,
,,,0.006173000000,  -0.84000,
,,,0.006174000000,  -0.84000,
,,,0.006175000000,  -0.80000,
,,,0.006176000000,  -0.80000,
,,,0.006177000000,  -0.80000,
,,,0.006178000000,  -0.80000,
,,,0.006179000000,  -0.80000,
,,,0.006180000000,  -0.80000,
,,,0.006181000000,  -0.80000,
,,,0.006182000000,  -0.80000,
,,,0.006183000000,  -0.76000,
,,,0.006184000000,  -0.76000,
,,,0.006185000000,  -0.72000,
,,,0.006186000000,  -0.72000,
,,,0.006187000000,  -0.72000,
,,,0.006188000000,  -0.76000,
,,,0.006189000000,  -0.72000,
,,,0.006190000000,  -0.72000,
,,,0.006191000000,  -0.68000,
,,,0.006192000000,  -0.68000,
,,,0.006193000000,  -0.72000,
,,,0.006194000000,  -0.68000,
,,,0.006195000000,  -0.68000,
,,,0.006196000000,  -0.64000,
,,,0.006197000000,  -0.64000,
,,,0.006198000000,  -0.64000,
,,,0.006199000000,  -0.64000,
,,,0.006200000000,  -0.60000,
,,,0.006201000000,  -0.60000,
,,,0.006202000000,  -0.64000,
,,,0.006203000000,  -0.60000,
,,,0.006204000000,  -0.60000,
,,,0.006205000000,  -0.60000,
,,,0.006206000000,  -0.60000,
,,,0.006207000000,  -0.56000,
,,,0.006208000000,  -0.60000,
,,,0.006209000000,  -0.60000,
,,,0.006210000000,  -0.56000,
,,,0.006211000000,  -0.56000,
,,,0.006212000000,  -0.56000,
,,,0.006213000000,  -0.56000,
,,,0.006214000000,  -0.56000,
,,,0.006215000000,  -0.56000,
,,,0.006216000000,  -0.52000,
,,,0.006217000000,  -0.52000,
,,,0.006218000000,  -0.52000,
,,,0.006219000000,  -0.52000,
,,,0.006220000000,  -0.52000,
,,,0.006221000000,  -0.48000,
,,,0.006222000000,  -0.52000,
,,,0.006223000000,  -0.52000,
,,,0.006224000000,  -0.48000,
,,,0.006225000000,  -0.48000,
,,,0.006226000000,  -0.48000,
,,,0.006227000000,  -0.52000,
,,,0.006228000000,  -0.48000,
,,,0.006229000000,  -0.48000,
,,,0.006230000000,  -0.48000,
,,,0.006231000000,  -0.48000,
,,,0.006232000000,  -0.44000,
,,,0.006233000000,  -0.48000,
,,,0.006234000000,  -0.44000,
,,,0.006235000000,  -0.44000,
,,,0.006236000000,  -0.44000,
,,,0.006237000000,  -0.44000,
,,,0.006238000000,  -0.44000,
,,,0.006239000000,  -0.44000,
,,,0.006240000000,  -0.44000,
,,,0.006241000000,  -0.40000,
,,,0.006242000000,  -0.40000,
,,,0.006243000000,  -0.40000,
,,,0.006244000000,  -0.40000,
,,,0.006245000000,  -0.36000,
,,,0.006246000000,  -0.40000,
,,,0.006247000000,  -0.40000,
,,,0.006248000000,  -0.36000,
,,,0.006249000000,  -0.40000,
,,,0.006250000000,  -0.36000,
,,,0.006251000000,  -0.36000,
,,,0.006252000000,  -0.36000,
,,,0.006253000000,  -0.40000,
,,,0.006254000000,  -0.36000,
,,,0.006255000000,  -0.36000,
,,,0.006256000000,  -0.36000,
,,,0.006257000000,  -0.32000,
,,,0.006258000000,  -0.36000,
,,,0.006259000000,  -0.32000,
,,,0.006260000000,  -0.32000,
,,,0.006261000000,  -0.32000,
,,,0.006262000000,  -0.32000,
,,,0.006263000000,  -0.32000,
,,,0.006264000000,  -0.36000,
,,,0.006265000000,  -0.32000,
,,,0.006266000000,  -0.32000,
,,,0.006267000000,  -0.32000,
,,,0.006268000000,  -0.28000,
,,,0.006269000000,  -0.28000,
,,,0.006270000000,  -0.32000,
,,,0.006271000000,  -0.32000,
,,,0.006272000000,  -0.28000,
,,,0.006273000000,  -0.32000,
,,,0.006274000000,  -0.28000,
,,,0.006275000000,  -0.28000,
,,,0.006276000000,  -0.28000,
,,,0.006277000000,  -0.28000,
,,,0.006278000000,  -0.28000,
,,,0.006279000000,  -0.28000,
,,,0.006280000000,  -0.28000,
,,,0.006281000000,  -0.28000,
,,,0.006282000000,  -0.28000,
,,,0.006283000000,  -0.28000,
,,,0.006284000000,  -0.28000,
,,,0.006285000000,  -0.28000,
,,,0.006286000000,  -0.24000,
,,,0.006287000000,  -0.24000,
,,,0.006288000000,  -0.24000,
,,,0.006289000000,  -0.24000,
,,,0.006290000000,  -0.24000,
,,,0.006291000000,  -0.24000,
,,,0.006292000000,  -0.28000,
,,,0.006293000000,  -0.24000,
,,,0.006294000000,  -0.24000,
,,,0.006295000000,  -0.24000,
,,,0.006296000000,  -0.24000,
,,,0.006297000000,  -0.24000,
,,,0.006298000000,  -0.24000,
,,,0.006299000000,  -0.20000,
,,,0.006300000000,  -0.20000,
,,,0.006301000000,  -0.20000,
,,,0.006302000000,  -0.20000,
