Ph 411/Lab-3-Data/2/RL/2.d-20khz/F0000CH2.CSV

Record Length,2.500000e+03,,   0.000454000000,   3.12000,
Sample Interval,4.000000e-08,,   0.000454040000,   3.12000,
Trigger Point,-1.135000000000e+04,,   0.000454080000,   3.12000,
,,,   0.000454120000,   3.04000,
,,,   0.000454160000,   3.12000,
,,,   0.000454200000,   3.12000,
Source,CH2,,   0.000454240000,   3.04000,
Vertical Units,V,,   0.000454280000,   2.96000,
Vertical Scale,2.000000e+00,,   0.000454320000,   3.12000,
Vertical Offset,0.000000e+00,,   0.000454360000,   3.04000,
Horizontal Units,s,,   0.000454400000,   2.96000,
Horizontal Scale,1.000000e-05,,   0.000454440000,   2.96000,
Pt Fmt,Y,,   0.000454480000,   3.04000,
Yzero,0.000000e+00,,   0.000454520000,   2.96000,
Probe Atten,1.000000e+01,,   0.000454560000,   2.96000,
Model Number,TDS1012B,,   0.000454600000,   2.96000,
Serial Number,C055216,,   0.000454640000,   2.96000,
Firmware Version,FV:v22.16,,   0.000454680000,   2.96000,
,,,0.000454720000,   2.88000,
,,,0.000454760000,   2.96000,
,,,0.000454800000,   2.88000,
,,,0.000454840000,   2.96000,
,,,0.000454880000,   2.80000,
,,,0.000454920000,   2.80000,
,,,0.000454960000,   2.80000,
,,,0.000455000000,   2.80000,
,,,0.000455040000,   2.80000,
,,,0.000455080000,   2.80000,
,,,0.000455120000,   2.80000,
,,,0.000455160000,   2.80000,
,,,0.000455200000,   2.80000,
,,,0.000455240000,   2.72000,
,,,0.000455280000,   2.72000,
,,,0.000455320000,   2.64000,
,,,0.000455360000,   2.64000,
,,,0.000455400000,   2.64000,
,,,0.000455440000,   2.64000,
,,,0.000455480000,   2.64000,
,,,0.000455520000,   2.72000,
,,,0.000455560000,   2.64000,
,,,0.000455600000,   2.64000,
,,,0.000455640000,   2.64000,
,,,0.000455680000,   2.64000,
,,,0.000455720000,   2.48000,
,,,0.000455760000,   2.56000,
,,,0.000455800000,   2.64000,
,,,0.000455840000,   2.56000,
,,,0.000455880000,   2.64000,
,,,0.000455920000,   2.56000,
,,,0.000455960000,   2.56000,
,,,0.000456000000,   2.56000,
,,,0.000456040000,   2.40000,
,,,0.000456080000,   2.48000,
,,,0.000456120000,   2.48000,
,,,0.000456160000,   2.48000,
,,,0.000456200000,   2.56000,
,,,0.000456240000,   2.40000,
,,,0.000456280000,   2.40000,
,,,0.000456320000,   2.40000,
,,,0.000456360000,   2.32000,
,,,0.000456400000,   2.40000,
,,,0.000456440000,   2.40000,
,,,0.000456480000,   2.32000,
,,,0.000456520000,   2.32000,
,,,0.000456560000,   2.40000,
,,,0.000456600000,   2.24000,
,,,0.000456640000,   2.40000,
,,,0.000456680000,   2.32000,
,,,0.000456720000,   2.32000,
,,,0.000456760000,   2.40000,
,,,0.000456800000,   2.24000,
,,,0.000456840000,   2.32000,
,,,0.000456880000,   2.24000,
,,,0.000456920000,   2.32000,
,,,0.000456960000,   2.24000,
,,,0.000457000000,   2.32000,
,,,0.000457040000,   2.24000,
,,,0.000457080000,   2.24000,
,,,0.000457120000,   2.16000,
,,,0.000457160000,   2.24000,
,,,0.000457200000,   2.24000,
,,,0.000457240000,   2.24000,
,,,0.000457280000,   2.24000,
,,,0.000457320000,   2.16000,
,,,0.000457360000,   2.24000,
,,,0.000457400000,   2.16000,
,,,0.000457440000,   2.16000,
,,,0.000457480000,   2.08000,
,,,0.000457520000,   2.08000,
,,,0.000457560000,   2.08000,
,,,0.000457600000,   2.08000,
,,,0.000457640000,   2.08000,
,,,0.000457680000,   2.00000,
,,,0.000457720000,   2.08000,
,,,0.000457760000,   2.08000,
,,,0.000457800000,   2.00000,
,,,0.000457840000,   2.08000,
,,,0.000457880000,   2.00000,
,,,0.000457920000,   2.08000,
,,,0.000457960000,   2.00000,
,,,0.000458000000,   2.00000,
,,,0.000458040000,   2.00000,
,,,0.000458080000,   2.00000,
,,,0.000458120000,   2.00000,
,,,0.000458160000,   2.00000,
,,,0.000458200000,   1.92000,
,,,0.000458240000,   1.92000,
,,,0.000458280000,   1.92000,
,,,0.000458320000,   2.00000,
,,,0.000458360000,   1.92000,
,,,0.000458400000,   1.92000,
,,,0.000458440000,   1.84000,
,,,0.000458480000,   2.00000,
,,,0.000458520000,   1.84000,
,,,0.000458560000,   1.76000,
,,,0.000458600000,   1.84000,
,,,0.000458640000,   1.84000,
,,,0.000458680000,   1.92000,
,,,0.000458720000,   1.92000,
,,,0.000458760000,   1.84000,
,,,0.000458800000,   1.76000,
,,,0.000458840000,   1.68000,
,,,0.000458880000,   1.84000,
,,,0.000458920000,   1.76000,
,,,0.000458960000,   1.84000,
,,,0.000459000000,   1.76000,
,,,0.000459040000,   1.68000,
,,,0.000459080000,   1.76000,
,,,0.000459120000,   1.76000,
,,,0.000459160000,   1.68000,
,,,0.000459200000,   1.84000,
,,,0.000459240000,   1.68000,
,,,0.000459280000,   1.68000,
,,,0.000459320000,   1.84000,
,,,0.000459360000,   1.68000,
,,,0.000459400000,   1.76000,
,,,0.000459440000,   1.60000,
,,,0.000459480000,   1.60000,
,,,0.000459520000,   1.76000,
,,,0.000459560000,   1.68000,
,,,0.000459600000,   1.68000,
,,,0.000459640000,   1.68000,
,,,0.000459680000,   1.68000,
,,,0.000459720000,   1.60000,
,,,0.000459760000,   1.60000,
,,,0.000459800000,   1.60000,
,,,0.000459840000,   1.60000,
,,,0.000459880000,   1.60000,
,,,0.000459920000,   1.60000,
,,,0.000459960000,   1.68000,
,,,0.000460000000,   1.60000,
,,,0.000460040000,   1.52000,
,,,0.000460080000,   1.60000,
,,,0.000460120000,   1.52000,
,,,0.000460160000,   1.52000,
,,,0.000460200000,   1.52000,
,,,0.000460240000,   1.52000,
,,,0.000460280000,   1.52000,
,,,0.000460320000,   1.52000,
,,,0.000460360000,   1.52000,
,,,0.000460400000,   1.52000,
,,,0.000460440000,   1.44000,
,,,0.000460480000,   1.52000,
,,,0.000460520000,   1.52000,
,,,0.000460560000,   1.52000,
,,,0.000460600000,   1.44000,
,,,0.000460640000,   1.44000,
,,,0.000460680000,   1.44000,
,,,0.000460720000,   1.52000,
,,,0.000460760000,   1.52000,
,,,0.000460800000,   1.44000,
,,,0.000460840000,   1.52000,
,,,0.000460880000,   1.44000,
,,,0.000460920000,   1.36000,
,,,0.000460960000,   1.44000,
,,,0.000461000000,   1.36000,
,,,0.000461040000,   1.36000,
,,,0.000461080000,   1.44000,
,,,0.000461120000,   1.36000,
,,,0.000461160000,   1.44000,
,,,0.000461200000,   1.36000,
,,,0.000461240000,   1.36000,
,,,0.000461280000,   1.44000,
,,,0.000461320000,   1.36000,
,,,0.000461360000,   1.36000,
,,,0.000461400000,   1.36000,
,,,0.000461440000,   1.28000,
,,,0.000461480000,   1.36000,
,,,0.000461520000,   1.36000,
,,,0.000461560000,   1.28000,
,,,0.000461600000,   1.36000,
,,,0.000461640000,   1.28000,
,,,0.000461680000,   1.36000,
,,,0.000461720000,   1.28000,
,,,0.000461760000,   1.28000,
,,,0.000461800000,   1.36000,
,,,0.000461840000,   1.28000,
,,,0.000461880000,   1.28000,
,,,0.000461920000,   1.36000,
,,,0.000461960000,   1.28000,
,,,0.000462000000,   1.28000,
,,,0.000462040000,   1.28000,
,,,0.000462080000,   1.20000,
,,,0.000462120000,   1.20000,
,,,0.000462160000,   1.28000,
,,,0.000462200000,   1.20000,
,,,0.000462240000,   1.20000,
,,,0.000462280000,   1.28000,
,,,0.000462320000,   1.20000,
,,,0.000462360000,   1.20000,
,,,0.000462400000,   1.28000,
,,,0.000462440000,   1.20000,
,,,0.000462480000,   1.20000,
,,,0.000462520000,   1.20000,
,,,0.000462560000,   1.20000,
,,,0.000462600000,   1.20000,
,,,0.000462640000,   1.12000,
,,,0.000462680000,   1.20000,
,,,0.000462720000,   1.12000,
,,,0.000462760000,   1.28000,
,,,0.000462800000,   1.20000,
,,,0.000462840000,   1.20000,
,,,0.000462880000,   1.12000,
,,,0.000462920000,   1.12000,
,,,0.000462960000,   1.20000,
,,,0.000463000000,   1.12000,
,,,0.000463040000,   1.20000,
,,,0.000463080000,   1.20000,
,,,0.000463120000,   1.04000,
,,,0.000463160000,   1.12000,
,,,0.000463200000,   1.04000,
,,,0.000463240000,   1.04000,
,,,0.000463280000,   1.12000,
,,,0.000463320000,   1.04000,
,,,0.000463360000,   1.12000,
,,,0.000463400000,   1.04000,
,,,0.000463440000,   1.12000,
,,,0.000463480000,   1.12000,
,,,0.000463520000,   1.04000,
,,,0.000463560000,   1.04000,
,,,0.000463600000,   1.04000,
,,,0.000463640000,   1.04000,
,,,0.000463680000,   1.04000,
,,,0.000463720000,   1.12000,
,,,0.000463760000,   1.12000,
,,,0.000463800000,   1.04000,
,,,0.000463840000,   1.04000,
,,,0.000463880000,   1.12000,
,,,0.000463920000,   1.04000,
,,,0.000463960000,   1.04000,
,,,0.000464000000,   0.96000,
,,,0.000464040000,   0.96000,
,,,0.000464080000,   0.96000,
,,,0.000464120000,   1.12000,
,,,0.000464160000,   0.96000,
,,,0.000464200000,   1.04000,
,,,0.000464240000,   1.04000,
,,,0.000464280000,   1.04000,
,,,0.000464320000,   0.96000,
,,,0.000464360000,   1.04000,
,,,0.000464400000,   1.04000,
,,,0.000464440000,   1.04000,
,,,0.000464480000,   0.96000,
,,,0.000464520000,   0.88000,
,,,0.000464560000,   0.96000,
,,,0.000464600000,   1.04000,
,,,0.000464640000,   0.96000,
,,,0.000464680000,   0.96000,
,,,0.000464720000,   0.96000,
,,,0.000464760000,   0.88000,
,,,0.000464800000,   0.96000,
,,,0.000464840000,   0.96000,
,,,0.000464880000,   0.88000,
,,,0.000464920000,   0.96000,
,,,0.000464960000,   0.88000,
,,,0.000465000000,   0.88000,
,,,0.000465040000,   0.96000,
,,,0.000465080000,   0.88000,
,,,0.000465120000,   0.96000,
,,,0.000465160000,   0.96000,
,,,0.000465200000,   0.88000,
,,,0.000465240000,   0.96000,
,,,0.000465280000,   0.96000,
,,,0.000465320000,   0.88000,
,,,0.000465360000,   0.88000,
,,,0.000465400000,   0.88000,
,,,0.000465440000,   0.88000,
,,,0.000465480000,   0.88000,
,,,0.000465520000,   0.80000,
,,,0.000465560000,   0.88000,
,,,0.000465600000,   0.88000,
,,,0.000465640000,   0.88000,
,,,0.000465680000,   0.80000,
,,,0.000465720000,   0.88000,
,,,0.000465760000,   0.80000,
,,,0.000465800000,   0.80000,
,,,0.000465840000,   0.80000,
,,,0.000465880000,   0.80000,
,,,0.000465920000,   0.80000,
,,,0.000465960000,   0.88000,
,,,0.000466000000,   0.80000,
,,,0.000466040000,   0.88000,
,,,0.000466080000,   0.72000,
,,,0.000466120000,   0.72000,
,,,0.000466160000,   0.80000,
,,,0.000466200000,   0.80000,
,,,0.000466240000,   0.80000,
,,,0.000466280000,   0.72000,
,,,0.000466320000,   0.72000,
,,,0.000466360000,   0.72000,
,,,0.000466400000,   0.80000,
,,,0.000466440000,   0.80000,
,,,0.000466480000,   0.80000,
,,,0.000466520000,   0.80000,
,,,0.000466560000,   0.80000,
,,,0.000466600000,   0.72000,
,,,0.000466640000,   0.80000,
,,,0.000466680000,   0.72000,
,,,0.000466720000,   0.72000,
,,,0.000466760000,   0.80000,
,,,0.000466800000,   0.80000,
,,,0.000466840000,   0.72000,
,,,0.000466880000,   0.64000,
,,,0.000466920000,   0.80000,
,,,0.000466960000,   0.72000,
,,,0.000467000000,   0.72000,
,,,0.000467040000,   0.80000,
,,,0.000467080000,   0.72000,
,,,0.000467120000,   0.80000,
,,,0.000467160000,   0.72000,
,,,0.000467200000,   0.64000,
,,,0.000467240000,   0.72000,
,,,0.000467280000,   0.64000,
,,,0.000467320000,   0.72000,
,,,0.000467360000,   0.80000,
,,,0.000467400000,   0.72000,
,,,0.000467440000,   0.80000,
,,,0.000467480000,   0.72000,
,,,0.000467520000,   0.64000,
,,,0.000467560000,   0.64000,
,,,0.000467600000,   0.64000,
,,,0.000467640000,   0.64000,
,,,0.000467680000,   0.64000,
,,,0.000467720000,   0.64000,
,,,0.000467760000,   0.64000,
,,,0.000467800000,   0.64000,
,,,0.000467840000,   0.64000,
,,,0.000467880000,   0.64000,
,,,0.000467920000,   0.72000,
,,,0.000467960000,   0.64000,
,,,0.000468000000,   0.64000,
,,,0.000468040000,   0.64000,
,,,0.000468080000,   0.64000,
,,,0.000468120000,   0.64000,
,,,0.000468160000,   0.72000,
,,,0.000468200000,   0.64000,
,,,0.000468240000,   0.64000,
,,,0.000468280000,   0.72000,
,,,0.000468320000,   0.64000,
,,,0.000468360000,   0.64000,
,,,0.000468400000,   0.56000,
,,,0.000468440000,   0.56000,
,,,0.000468480000,   0.64000,
,,,0.000468520000,   0.64000,
,,,0.000468560000,   0.72000,
,,,0.000468600000,   0.64000,
,,,0.000468640000,   0.64000,
,,,0.000468680000,   0.56000,
,,,0.000468720000,   0.56000,
,,,0.000468760000,   0.56000,
,,,0.000468800000,   0.64000,
,,,0.000468840000,   0.56000,
,,,0.000468880000,   0.64000,
,,,0.000468920000,   0.64000,
,,,0.000468960000,   0.56000,
,,,0.000469000000,   0.56000,
,,,0.000469040000,   0.56000,
,,,0.000469080000,   0.56000,
,,,0.000469120000,   0.64000,
,,,0.000469160000,   0.56000,
,,,0.000469200000,   0.56000,
,,,0.000469240000,   0.56000,
,,,0.000469280000,   0.48000,
,,,0.000469320000,   0.56000,
,,,0.000469360000,   0.56000,
,,,0.000469400000,   0.48000,
,,,0.000469440000,   0.64000,
,,,0.000469480000,   0.64000,
,,,0.000469520000,   0.56000,
,,,0.000469560000,   0.48000,
,,,0.000469600000,   0.56000,
,,,0.000469640000,   0.64000,
,,,0.000469680000,   0.48000,
,,,0.000469720000,   0.48000,
,,,0.000469760000,   0.56000,
,,,0.000469800000,   0.56000,
,,,0.000469840000,   0.56000,
,,,0.000469880000,   0.56000,
,,,0.000469920000,   0.48000,
,,,0.000469960000,   0.48000,
,,,0.000470000000,   0.56000,
,,,0.000470040000,   0.48000,
,,,0.000470080000,   0.56000,
,,,0.000470120000,   0.48000,
,,,0.000470160000,   0.56000,
,,,0.000470200000,   0.48000,
,,,0.000470240000,   0.48000,
,,,0.000470280000,   0.48000,
,,,0.000470320000,   0.48000,
,,,0.000470360000,   0.56000,
,,,0.000470400000,   0.56000,
,,,0.000470440000,   0.40000,
,,,0.000470480000,   0.48000,
,,,0.000470520000,   0.48000,
,,,0.000470560000,   0.48000,
,,,0.000470600000,   0.48000,
,,,0.000470640000,   0.48000,
,,,0.000470680000,   0.48000,
,,,0.000470720000,   0.48000,
,,,0.000470760000,   0.48000,
,,,0.000470800000,   0.48000,
,,,0.000470840000,   0.48000,
,,,0.000470880000,   0.48000,
,,,0.000470920000,   0.48000,
,,,0.000470960000,   0.40000,
,,,0.000471000000,   0.56000,
,,,0.000471040000,   0.48000,
,,,0.000471080000,   0.40000,
,,,0.000471120000,   0.48000,
,,,0.000471160000,   0.40000,
,,,0.000471200000,   0.56000,
,,,0.000471240000,   0.40000,
,,,0.000471280000,   0.48000,
,,,0.000471320000,   0.48000,
,,,0.000471360000,   0.48000,
,,,0.000471400000,   0.40000,
,,,0.000471440000,   0.40000,
,,,0.000471480000,   0.48000,
,,,0.000471520000,   0.48000,
,,,0.000471560000,   0.40000,
,,,0.000471600000,   0.32000,
,,,0.000471640000,   0.48000,
,,,0.000471680000,   0.40000,
,,,0.000471720000,   0.40000,
,,,0.000471760000,   0.48000,
,,,0.000471800000,   0.40000,
,,,0.000471840000,   0.48000,
,,,0.000471880000,   0.48000,
,,,0.000471920000,   0.40000,
,,,0.000471960000,   0.40000,
,,,0.000472000000,   0.40000,
,,,0.000472040000,   0.48000,
,,,0.000472080000,   0.40000,
,,,0.000472120000,   0.48000,
,,,0.000472160000,   0.40000,
,,,0.000472200000,   0.40000,
,,,0.000472240000,   0.40000,
,,,0.000472280000,   0.48000,
,,,0.000472320000,   0.40000,
,,,0.000472360000,   0.48000,
,,,0.000472400000,   0.40000,
,,,0.000472440000,   0.32000,
,,,0.000472480000,   0.40000,
,,,0.000472520000,   0.40000,
,,,0.000472560000,   0.40000,
,,,0.000472600000,   0.40000,
,,,0.000472640000,   0.48000,
,,,0.000472680000,   0.40000,
,,,0.000472720000,   0.40000,
,,,0.000472760000,   0.48000,
,,,0.000472800000,   0.48000,
,,,0.000472840000,   0.48000,
,,,0.000472880000,   0.32000,
,,,0.000472920000,   0.32000,
,,,0.000472960000,   0.40000,
,,,0.000473000000,   0.40000,
,,,0.000473040000,   0.32000,
,,,0.000473080000,   0.40000,
,,,0.000473120000,   0.40000,
,,,0.000473160000,   0.40000,
,,,0.000473200000,   0.48000,
,,,0.000473240000,   0.40000,
,,,0.000473280000,   0.40000,
,,,0.000473320000,   0.32000,
,,,0.000473360000,   0.40000,
,,,0.000473400000,   0.32000,
,,,0.000473440000,   0.32000,
,,,0.000473480000,   0.40000,
,,,0.000473520000,   0.40000,
,,,0.000473560000,   0.48000,
,,,0.000473600000,   0.40000,
,,,0.000473640000,   0.32000,
,,,0.000473680000,   0.32000,
,,,0.000473720000,   0.40000,
,,,0.000473760000,   0.40000,
,,,0.000473800000,   0.40000,
,,,0.000473840000,   0.32000,
,,,0.000473880000,   0.32000,
,,,0.000473920000,   0.32000,
,,,0.000473960000,   0.32000,
,,,0.000474000000,   0.40000,
,,,0.000474040000,   0.32000,
,,,0.000474080000,   0.40000,
,,,0.000474120000,   0.32000,
,,,0.000474160000,   0.32000,
,,,0.000474200000,   0.32000,
,,,0.000474240000,   0.48000,
,,,0.000474280000,   0.32000,
,,,0.000474320000,   0.32000,
,,,0.000474360000,   0.24000,
,,,0.000474400000,   0.24000,
,,,0.000474440000,   0.24000,
,,,0.000474480000,   0.32000,
,,,0.000474520000,   0.24000,
,,,0.000474560000,   0.32000,
,,,0.000474600000,   0.32000,
,,,0.000474640000,   0.32000,
,,,0.000474680000,   0.40000,
,,,0.000474720000,   0.24000,
,,,0.000474760000,   0.24000,
,,,0.000474800000,   0.32000,
,,,0.000474840000,   0.32000,
,,,0.000474880000,   0.24000,
,,,0.000474920000,   0.32000,
,,,0.000474960000,   0.40000,
,,,0.000475000000,   0.32000,
,,,0.000475040000,   0.32000,
,,,0.000475080000,   0.24000,
,,,0.000475120000,   0.32000,
,,,0.000475160000,   0.32000,
,,,0.000475200000,   0.24000,
,,,0.000475240000,   0.32000,
,,,0.000475280000,   0.32000,
,,,0.000475320000,   0.32000,
,,,0.000475360000,   0.00000,
,,,0.000475400000,  -2.88000,
,,,0.000475440000,  -3.92000,
,,,0.000475480000,  -4.32000,
,,,0.000475520000,  -4.48000,
,,,0.000475560000,  -4.48000,
,,,0.000475600000,  -4.56000,
,,,0.000475640000,  -4.48000,
,,,0.000475680000,  -4.56000,
,,,0.000475720000,  -4.48000,
,,,0.000475760000,  -4.56000,
,,,0.000475800000,  -4.48000,
,,,0.000475840000,  -4.48000,
,,,0.000475880000,  -4.48000,
,,,0.000475920000,  -4.32000,
,,,0.000475960000,  -4.32000,
,,,0.000476000000,  -4.40000,
,,,0.000476040000,  -4.32000,
,,,0.000476080000,  -4.32000,
,,,0.000476120000,  -4.24000,
,,,0.000476160000,  -4.40000,
,,,0.000476200000,  -4.24000,
,,,0.000476240000,  -4.24000,
,,,0.000476280000,  -4.24000,
,,,0.000476320000,  -4.24000,
,,,0.000476360000,  -4.16000,
,,,0.000476400000,  -4.16000,
,,,0.000476440000,  -4.08000,
,,,0.000476480000,  -4.08000,
,,,0.000476520000,  -4.16000,
,,,0.000476560000,  -4.08000,
,,,0.000476600000,  -4.08000,
,,,0.000476640000,  -4.08000,
,,,0.000476680000,  -4.00000,
,,,0.000476720000,  -4.00000,
,,,0.000476760000,  -4.08000,
,,,0.000476800000,  -4.08000,
,,,0.000476840000,  -4.00000,
,,,0.000476880000,  -3.84000,
,,,0.000476920000,  -3.92000,
,,,0.000476960000,  -3.92000,
,,,0.000477000000,  -3.84000,
,,,0.000477040000,  -3.92000,
,,,0.000477080000,  -3.84000,
,,,0.000477120000,  -3.84000,
,,,0.000477160000,  -3.84000,
,,,0.000477200000,  -3.92000,
,,,0.000477240000,  -3.76000,
,,,0.000477280000,  -3.68000,
,,,0.000477320000,  -3.68000,
,,,0.000477360000,  -3.76000,
,,,0.000477400000,  -3.76000,
,,,0.000477440000,  -3.76000,
,,,0.000477480000,  -3.68000,
,,,0.000477520000,  -3.60000,
,,,0.000477560000,  -3.68000,
,,,0.000477600000,  -3.68000,
,,,0.000477640000,  -3.60000,
,,,0.000477680000,  -3.68000,
,,,0.000477720000,  -3.60000,
,,,0.000477760000,  -3.52000,
,,,0.000477800000,  -3.60000,
,,,0.000477840000,  -3.52000,
,,,0.000477880000,  -3.44000,
,,,0.000477920000,  -3.52000,
,,,0.000477960000,  -3.52000,
,,,0.000478000000,  -3.52000,
,,,0.000478040000,  -3.44000,
,,,0.000478080000,  -3.44000,
,,,0.000478120000,  -3.52000,
,,,0.000478160000,  -3.36000,
,,,0.000478200000,  -3.36000,
,,,0.000478240000,  -3.36000,
,,,0.000478280000,  -3.36000,
,,,0.000478320000,  -3.44000,
,,,0.000478360000,  -3.36000,
,,,0.000478400000,  -3.28000,
,,,0.000478440000,  -3.28000,
,,,0.000478480000,  -3.36000,
,,,0.000478520000,  -3.28000,
,,,0.000478560000,  -3.20000,
,,,0.000478600000,  -3.28000,
,,,0.000478640000,  -3.12000,
,,,0.000478680000,  -3.20000,
,,,0.000478720000,  -3.28000,
,,,0.000478760000,  -3.12000,
,,,0.000478800000,  -3.20000,
,,,0.000478840000,  -3.12000,
,,,0.000478880000,  -3.20000,
,,,0.000478920000,  -3.12000,
,,,0.000478960000,  -3.20000,
,,,0.000479000000,  -3.12000,
,,,0.000479040000,  -3.04000,
,,,0.000479080000,  -3.04000,
,,,0.000479120000,  -3.20000,
,,,0.000479160000,  -3.04000,
,,,0.000479200000,  -2.96000,
,,,0.000479240000,  -3.04000,
,,,0.000479280000,  -2.96000,
,,,0.000479320000,  -2.96000,
,,,0.000479360000,  -3.04000,
,,,0.000479400000,  -2.96000,
,,,0.000479440000,  -3.04000,
,,,0.000479480000,  -2.96000,
,,,0.000479520000,  -2.96000,
,,,0.000479560000,  -2.88000,
,,,0.000479600000,  -2.88000,
,,,0.000479640000,  -2.96000,
,,,0.000479680000,  -2.88000,
,,,0.000479720000,  -2.88000,
,,,0.000479760000,  -2.88000,
,,,0.000479800000,  -2.88000,
,,,0.000479840000,  -2.88000,
,,,0.000479880000,  -2.80000,
,,,0.000479920000,  -2.80000,
,,,0.000479960000,  -2.88000,
,,,0.000480000000,  -2.80000,
,,,0.000480040000,  -2.72000,
,,,0.000480080000,  -2.80000,
,,,0.000480120000,  -2.80000,
