Ph 411/Lab-3-Data/2/RL/2.d-1Mhz/F0000CH2.CSV

Record Length,2.500000e+03,,   0.000502750000,  -2.28000,
Sample Interval,1.000000e-09,,   0.000502751000,  -2.32000,
Trigger Point,-5.027500000000e+05,,   0.000502752000,  -2.32000,
,,,   0.000502753000,  -2.32000,
,,,   0.000502754000,  -2.36000,
,,,   0.000502755000,  -2.32000,
Source,CH2,,   0.000502756000,  -2.32000,
Vertical Units,V,,   0.000502757000,  -2.36000,
Vertical Scale,1.000000e+00,,   0.000502758000,  -2.36000,
Vertical Offset,0.000000e+00,,   0.000502759000,  -2.36000,
Horizontal Units,s,,   0.000502760000,  -2.36000,
Horizontal Scale,2.500000e-07,,   0.000502761000,  -2.44000,
Pt Fmt,Y,,   0.000502762000,  -2.40000,
Yzero,0.000000e+00,,   0.000502763000,  -2.36000,
Probe Atten,1.000000e+01,,   0.000502764000,  -2.36000,
Model Number,TDS1012B,,   0.000502765000,  -2.40000,
Serial Number,C055216,,   0.000502766000,  -2.40000,
Firmware Version,FV:v22.16,,   0.000502767000,  -2.36000,
,,,0.000502768000,  -2.36000,
,,,0.000502769000,  -2.40000,
,,,0.000502770000,  -2.40000,
,,,0.000502771000,  -2.36000,
,,,0.000502772000,  -2.40000,
,,,0.000502773000,  -2.40000,
,,,0.000502774000,  -2.40000,
,,,0.000502775000,  -2.44000,
,,,0.000502776000,  -2.44000,
,,,0.000502777000,  -2.44000,
,,,0.000502778000,  -2.44000,
,,,0.000502779000,  -2.44000,
,,,0.000502780000,  -2.44000,
,,,0.000502781000,  -2.44000,
,,,0.000502782000,  -2.44000,
,,,0.000502783000,  -2.40000,
,,,0.000502784000,  -2.44000,
,,,0.000502785000,  -2.48000,
,,,0.000502786000,  -2.44000,
,,,0.000502787000,  -2.48000,
,,,0.000502788000,  -2.44000,
,,,0.000502789000,  -2.44000,
,,,0.000502790000,  -2.48000,
,,,0.000502791000,  -2.48000,
,,,0.000502792000,  -2.48000,
,,,0.000502793000,  -2.48000,
,,,0.000502794000,  -2.48000,
,,,0.000502795000,  -2.52000,
,,,0.000502796000,  -2.48000,
,,,0.000502797000,  -2.44000,
,,,0.000502798000,  -2.44000,
,,,0.000502799000,  -2.48000,
,,,0.000502800000,  -2.44000,
,,,0.000502801000,  -2.52000,
,,,0.000502802000,  -2.48000,
,,,0.000502803000,  -2.48000,
,,,0.000502804000,  -2.48000,
,,,0.000502805000,  -2.48000,
,,,0.000502806000,  -2.48000,
,,,0.000502807000,  -2.48000,
,,,0.000502808000,  -2.48000,
,,,0.000502809000,  -2.52000,
,,,0.000502810000,  -2.52000,
,,,0.000502811000,  -2.52000,
,,,0.000502812000,  -2.48000,
,,,0.000502813000,  -2.48000,
,,,0.000502814000,  -2.48000,
,,,0.000502815000,  -2.52000,
,,,0.000502816000,  -2.52000,
,,,0.000502817000,  -2.52000,
,,,0.000502818000,  -2.52000,
,,,0.000502819000,  -2.48000,
,,,0.000502820000,  -2.48000,
,,,0.000502821000,  -2.48000,
,,,0.000502822000,  -2.52000,
,,,0.000502823000,  -2.48000,
,,,0.000502824000,  -2.48000,
,,,0.000502825000,  -2.52000,
,,,0.000502826000,  -2.52000,
,,,0.000502827000,  -2.52000,
,,,0.000502828000,  -2.48000,
,,,0.000502829000,  -2.52000,
,,,0.000502830000,  -2.52000,
,,,0.000502831000,  -2.48000,
,,,0.000502832000,  -2.52000,
,,,0.000502833000,  -2.52000,
,,,0.000502834000,  -2.52000,
,,,0.000502835000,  -2.48000,
,,,0.000502836000,  -2.48000,
,,,0.000502837000,  -2.52000,
,,,0.000502838000,  -2.52000,
,,,0.000502839000,  -2.52000,
,,,0.000502840000,  -2.52000,
,,,0.000502841000,  -2.52000,
,,,0.000502842000,  -2.52000,
,,,0.000502843000,  -2.56000,
,,,0.000502844000,  -2.60000,
,,,0.000502845000,  -2.52000,
,,,0.000502846000,  -2.52000,
,,,0.000502847000,  -2.52000,
,,,0.000502848000,  -2.56000,
,,,0.000502849000,  -2.52000,
,,,0.000502850000,  -2.52000,
,,,0.000502851000,  -2.52000,
,,,0.000502852000,  -2.44000,
,,,0.000502853000,  -2.48000,
,,,0.000502854000,  -2.48000,
,,,0.000502855000,  -2.48000,
,,,0.000502856000,  -2.52000,
,,,0.000502857000,  -2.52000,
,,,0.000502858000,  -2.52000,
,,,0.000502859000,  -2.60000,
,,,0.000502860000,  -2.60000,
,,,0.000502861000,  -2.52000,
,,,0.000502862000,  -2.52000,
,,,0.000502863000,  -2.48000,
,,,0.000502864000,  -2.52000,
,,,0.000502865000,  -2.52000,
,,,0.000502866000,  -2.52000,
,,,0.000502867000,  -2.56000,
,,,0.000502868000,  -2.52000,
,,,0.000502869000,  -2.52000,
,,,0.000502870000,  -2.52000,
,,,0.000502871000,  -2.48000,
,,,0.000502872000,  -2.48000,
,,,0.000502873000,  -2.52000,
,,,0.000502874000,  -2.52000,
,,,0.000502875000,  -2.52000,
,,,0.000502876000,  -2.52000,
,,,0.000502877000,  -2.56000,
,,,0.000502878000,  -2.48000,
,,,0.000502879000,  -2.52000,
,,,0.000502880000,  -2.52000,
,,,0.000502881000,  -2.48000,
,,,0.000502882000,  -2.48000,
,,,0.000502883000,  -2.48000,
,,,0.000502884000,  -2.52000,
,,,0.000502885000,  -2.48000,
,,,0.000502886000,  -2.52000,
,,,0.000502887000,  -2.52000,
,,,0.000502888000,  -2.56000,
,,,0.000502889000,  -2.52000,
,,,0.000502890000,  -2.48000,
,,,0.000502891000,  -2.56000,
,,,0.000502892000,  -2.52000,
,,,0.000502893000,  -2.56000,
,,,0.000502894000,  -2.56000,
,,,0.000502895000,  -2.52000,
,,,0.000502896000,  -2.52000,
,,,0.000502897000,  -2.48000,
,,,0.000502898000,  -2.48000,
,,,0.000502899000,  -2.52000,
,,,0.000502900000,  -2.52000,
,,,0.000502901000,  -2.48000,
,,,0.000502902000,  -2.48000,
,,,0.000502903000,  -2.48000,
,,,0.000502904000,  -2.48000,
,,,0.000502905000,  -2.52000,
,,,0.000502906000,  -2.48000,
,,,0.000502907000,  -2.52000,
,,,0.000502908000,  -2.56000,
,,,0.000502909000,  -2.56000,
,,,0.000502910000,  -2.56000,
,,,0.000502911000,  -2.44000,
,,,0.000502912000,  -2.48000,
,,,0.000502913000,  -2.48000,
,,,0.000502914000,  -2.48000,
,,,0.000502915000,  -2.52000,
,,,0.000502916000,  -2.52000,
,,,0.000502917000,  -2.52000,
,,,0.000502918000,  -2.52000,
,,,0.000502919000,  -2.52000,
,,,0.000502920000,  -2.48000,
,,,0.000502921000,  -2.48000,
,,,0.000502922000,  -2.52000,
,,,0.000502923000,  -2.52000,
,,,0.000502924000,  -2.48000,
,,,0.000502925000,  -2.52000,
,,,0.000502926000,  -2.52000,
,,,0.000502927000,  -2.48000,
,,,0.000502928000,  -2.52000,
,,,0.000502929000,  -2.52000,
,,,0.000502930000,  -2.48000,
,,,0.000502931000,  -2.52000,
,,,0.000502932000,  -2.52000,
,,,0.000502933000,  -2.56000,
,,,0.000502934000,  -2.52000,
,,,0.000502935000,  -2.48000,
,,,0.000502936000,  -2.52000,
,,,0.000502937000,  -2.52000,
,,,0.000502938000,  -2.52000,
,,,0.000502939000,  -2.52000,
,,,0.000502940000,  -2.48000,
,,,0.000502941000,  -2.56000,
,,,0.000502942000,  -2.52000,
,,,0.000502943000,  -2.52000,
,,,0.000502944000,  -2.52000,
,,,0.000502945000,  -2.52000,
,,,0.000502946000,  -2.52000,
,,,0.000502947000,  -2.52000,
,,,0.000502948000,  -2.52000,
,,,0.000502949000,  -2.52000,
,,,0.000502950000,  -2.48000,
,,,0.000502951000,  -2.48000,
,,,0.000502952000,  -2.48000,
,,,0.000502953000,  -2.52000,
,,,0.000502954000,  -2.52000,
,,,0.000502955000,  -2.48000,
,,,0.000502956000,  -2.52000,
,,,0.000502957000,  -2.52000,
,,,0.000502958000,  -2.56000,
,,,0.000502959000,  -2.56000,
,,,0.000502960000,  -2.48000,
,,,0.000502961000,  -2.52000,
,,,0.000502962000,  -2.48000,
,,,0.000502963000,  -2.48000,
,,,0.000502964000,  -2.48000,
,,,0.000502965000,  -2.52000,
,,,0.000502966000,  -2.48000,
,,,0.000502967000,  -2.52000,
,,,0.000502968000,  -2.48000,
,,,0.000502969000,  -2.48000,
,,,0.000502970000,  -2.48000,
,,,0.000502971000,  -2.48000,
,,,0.000502972000,  -2.48000,
,,,0.000502973000,  -2.52000,
,,,0.000502974000,  -2.56000,
,,,0.000502975000,  -2.48000,
,,,0.000502976000,  -2.52000,
,,,0.000502977000,  -2.52000,
,,,0.000502978000,  -2.48000,
,,,0.000502979000,  -2.48000,
,,,0.000502980000,  -2.48000,
,,,0.000502981000,  -2.52000,
,,,0.000502982000,  -2.48000,
,,,0.000502983000,  -2.48000,
,,,0.000502984000,  -2.44000,
,,,0.000502985000,  -2.48000,
,,,0.000502986000,  -2.52000,
,,,0.000502987000,  -2.48000,
,,,0.000502988000,  -2.48000,
,,,0.000502989000,  -2.48000,
,,,0.000502990000,  -2.44000,
,,,0.000502991000,  -2.52000,
,,,0.000502992000,  -2.48000,
,,,0.000502993000,  -2.52000,
,,,0.000502994000,  -2.48000,
,,,0.000502995000,  -2.56000,
,,,0.000502996000,  -2.52000,
,,,0.000502997000,  -2.52000,
,,,0.000502998000,  -2.48000,
,,,0.000502999000,  -2.52000,
,,,0.000503000000,  -2.52000,
,,,0.000503001000,  -2.52000,
,,,0.000503002000,  -2.52000,
,,,0.000503003000,  -2.48000,
,,,0.000503004000,  -2.52000,
,,,0.000503005000,  -2.52000,
,,,0.000503006000,  -2.52000,
,,,0.000503007000,  -2.52000,
,,,0.000503008000,  -2.56000,
,,,0.000503009000,  -2.56000,
,,,0.000503010000,  -2.44000,
,,,0.000503011000,  -2.44000,
,,,0.000503012000,  -2.48000,
,,,0.000503013000,  -2.48000,
,,,0.000503014000,  -2.48000,
,,,0.000503015000,  -2.52000,
,,,0.000503016000,  -2.48000,
,,,0.000503017000,  -2.48000,
,,,0.000503018000,  -2.48000,
,,,0.000503019000,  -2.48000,
,,,0.000503020000,  -2.48000,
,,,0.000503021000,  -2.48000,
,,,0.000503022000,  -2.44000,
,,,0.000503023000,  -2.52000,
,,,0.000503024000,  -2.52000,
,,,0.000503025000,  -2.48000,
,,,0.000503026000,  -2.52000,
,,,0.000503027000,  -2.48000,
,,,0.000503028000,  -2.48000,
,,,0.000503029000,  -2.52000,
,,,0.000503030000,  -2.48000,
,,,0.000503031000,  -2.48000,
,,,0.000503032000,  -2.48000,
,,,0.000503033000,  -2.52000,
,,,0.000503034000,  -2.52000,
,,,0.000503035000,  -2.48000,
,,,0.000503036000,  -2.48000,
,,,0.000503037000,  -2.48000,
,,,0.000503038000,  -2.52000,
,,,0.000503039000,  -2.52000,
,,,0.000503040000,  -2.52000,
,,,0.000503041000,  -2.52000,
,,,0.000503042000,  -2.52000,
,,,0.000503043000,  -2.48000,
,,,0.000503044000,  -2.44000,
,,,0.000503045000,  -2.44000,
,,,0.000503046000,  -2.44000,
,,,0.000503047000,  -2.44000,
,,,0.000503048000,  -2.44000,
,,,0.000503049000,  -2.48000,
,,,0.000503050000,  -2.44000,
,,,0.000503051000,  -2.52000,
,,,0.000503052000,  -2.48000,
,,,0.000503053000,  -2.48000,
,,,0.000503054000,  -2.48000,
,,,0.000503055000,  -2.52000,
,,,0.000503056000,  -2.48000,
,,,0.000503057000,  -2.48000,
,,,0.000503058000,  -2.56000,
,,,0.000503059000,  -2.44000,
,,,0.000503060000,  -2.48000,
,,,0.000503061000,  -2.44000,
,,,0.000503062000,  -2.48000,
,,,0.000503063000,  -2.44000,
,,,0.000503064000,  -2.48000,
,,,0.000503065000,  -2.48000,
,,,0.000503066000,  -2.48000,
,,,0.000503067000,  -2.44000,
,,,0.000503068000,  -2.44000,
,,,0.000503069000,  -2.48000,
,,,0.000503070000,  -2.48000,
,,,0.000503071000,  -2.44000,
,,,0.000503072000,  -2.48000,
,,,0.000503073000,  -2.48000,
,,,0.000503074000,  -2.48000,
,,,0.000503075000,  -2.48000,
,,,0.000503076000,  -2.48000,
,,,0.000503077000,  -2.44000,
,,,0.000503078000,  -2.48000,
,,,0.000503079000,  -2.48000,
,,,0.000503080000,  -2.48000,
,,,0.000503081000,  -2.44000,
,,,0.000503082000,  -2.48000,
,,,0.000503083000,  -2.44000,
,,,0.000503084000,  -2.48000,
,,,0.000503085000,  -2.44000,
,,,0.000503086000,  -2.48000,
,,,0.000503087000,  -2.48000,
,,,0.000503088000,  -2.48000,
,,,0.000503089000,  -2.48000,
,,,0.000503090000,  -2.56000,
,,,0.000503091000,  -2.48000,
,,,0.000503092000,  -2.48000,
,,,0.000503093000,  -2.44000,
,,,0.000503094000,  -2.44000,
,,,0.000503095000,  -2.48000,
,,,0.000503096000,  -2.48000,
,,,0.000503097000,  -2.48000,
,,,0.000503098000,  -2.44000,
,,,0.000503099000,  -2.48000,
,,,0.000503100000,  -2.48000,
,,,0.000503101000,  -2.48000,
,,,0.000503102000,  -2.48000,
,,,0.000503103000,  -2.48000,
,,,0.000503104000,  -2.44000,
,,,0.000503105000,  -2.44000,
,,,0.000503106000,  -2.48000,
,,,0.000503107000,  -2.48000,
,,,0.000503108000,  -2.52000,
,,,0.000503109000,  -2.44000,
,,,0.000503110000,  -2.44000,
,,,0.000503111000,  -2.44000,
,,,0.000503112000,  -2.48000,
,,,0.000503113000,  -2.48000,
,,,0.000503114000,  -2.48000,
,,,0.000503115000,  -2.44000,
,,,0.000503116000,  -2.40000,
,,,0.000503117000,  -2.44000,
,,,0.000503118000,  -2.44000,
,,,0.000503119000,  -2.48000,
,,,0.000503120000,  -2.44000,
,,,0.000503121000,  -2.44000,
,,,0.000503122000,  -2.40000,
,,,0.000503123000,  -2.44000,
,,,0.000503124000,  -2.36000,
,,,0.000503125000,  -2.36000,
,,,0.000503126000,  -2.28000,
,,,0.000503127000,  -2.32000,
,,,0.000503128000,  -2.24000,
,,,0.000503129000,  -2.24000,
,,,0.000503130000,  -2.12000,
,,,0.000503131000,  -2.08000,
,,,0.000503132000,  -2.04000,
,,,0.000503133000,  -1.92000,
,,,0.000503134000,  -1.80000,
,,,0.000503135000,  -1.76000,
,,,0.000503136000,  -1.64000,
,,,0.000503137000,  -1.56000,
,,,0.000503138000,  -1.44000,
,,,0.000503139000,  -1.36000,
,,,0.000503140000,  -1.28000,
,,,0.000503141000,  -1.16000,
,,,0.000503142000,  -1.08000,
,,,0.000503143000,  -1.00000,
,,,0.000503144000,  -0.80000,
,,,0.000503145000,  -0.76000,
,,,0.000503146000,  -0.68000,
,,,0.000503147000,  -0.64000,
,,,0.000503148000,  -0.52000,
,,,0.000503149000,  -0.44000,
,,,0.000503150000,  -0.40000,
,,,0.000503151000,  -0.28000,
,,,0.000503152000,  -0.24000,
,,,0.000503153000,  -0.20000,
,,,0.000503154000,  -0.12000,
,,,0.000503155000,  -0.04000,
,,,0.000503156000,  -0.04000,
,,,0.000503157000,   0.04000,
,,,0.000503158000,   0.08000,
,,,0.000503159000,   0.20000,
,,,0.000503160000,   0.20000,
,,,0.000503161000,   0.24000,
,,,0.000503162000,   0.32000,
,,,0.000503163000,   0.36000,
,,,0.000503164000,   0.40000,
,,,0.000503165000,   0.44000,
,,,0.000503166000,   0.48000,
,,,0.000503167000,   0.56000,
,,,0.000503168000,   0.56000,
,,,0.000503169000,   0.68000,
,,,0.000503170000,   0.68000,
,,,0.000503171000,   0.72000,
,,,0.000503172000,   0.76000,
,,,0.000503173000,   0.80000,
,,,0.000503174000,   0.88000,
,,,0.000503175000,   0.88000,
,,,0.000503176000,   0.96000,
,,,0.000503177000,   1.00000,
,,,0.000503178000,   1.04000,
,,,0.000503179000,   1.08000,
,,,0.000503180000,   1.12000,
,,,0.000503181000,   1.16000,
,,,0.000503182000,   1.20000,
,,,0.000503183000,   1.24000,
,,,0.000503184000,   1.28000,
,,,0.000503185000,   1.32000,
,,,0.000503186000,   1.36000,
,,,0.000503187000,   1.36000,
,,,0.000503188000,   1.44000,
,,,0.000503189000,   1.44000,
,,,0.000503190000,   1.44000,
,,,0.000503191000,   1.48000,
,,,0.000503192000,   1.48000,
,,,0.000503193000,   1.48000,
,,,0.000503194000,   1.56000,
,,,0.000503195000,   1.56000,
,,,0.000503196000,   1.60000,
,,,0.000503197000,   1.60000,
,,,0.000503198000,   1.60000,
,,,0.000503199000,   1.64000,
,,,0.000503200000,   1.64000,
,,,0.000503201000,   1.68000,
,,,0.000503202000,   1.68000,
,,,0.000503203000,   1.76000,
,,,0.000503204000,   1.76000,
,,,0.000503205000,   1.76000,
,,,0.000503206000,   1.80000,
,,,0.000503207000,   1.80000,
,,,0.000503208000,   1.80000,
,,,0.000503209000,   1.84000,
,,,0.000503210000,   1.88000,
,,,0.000503211000,   1.88000,
,,,0.000503212000,   1.92000,
,,,0.000503213000,   1.96000,
,,,0.000503214000,   1.96000,
,,,0.000503215000,   1.96000,
,,,0.000503216000,   1.96000,
,,,0.000503217000,   2.00000,
,,,0.000503218000,   2.00000,
,,,0.000503219000,   2.04000,
,,,0.000503220000,   2.04000,
,,,0.000503221000,   2.04000,
,,,0.000503222000,   2.08000,
,,,0.000503223000,   2.04000,
,,,0.000503224000,   2.08000,
,,,0.000503225000,   2.12000,
,,,0.000503226000,   2.08000,
,,,0.000503227000,   2.08000,
,,,0.000503228000,   2.08000,
,,,0.000503229000,   2.16000,
,,,0.000503230000,   2.12000,
,,,0.000503231000,   2.20000,
,,,0.000503232000,   2.12000,
,,,0.000503233000,   2.20000,
,,,0.000503234000,   2.16000,
,,,0.000503235000,   2.16000,
,,,0.000503236000,   2.20000,
,,,0.000503237000,   2.20000,
,,,0.000503238000,   2.20000,
,,,0.000503239000,   2.24000,
,,,0.000503240000,   2.20000,
,,,0.000503241000,   2.24000,
,,,0.000503242000,   2.28000,
,,,0.000503243000,   2.24000,
,,,0.000503244000,   2.20000,
,,,0.000503245000,   2.24000,
,,,0.000503246000,   2.28000,
,,,0.000503247000,   2.28000,
,,,0.000503248000,   2.32000,
,,,0.000503249000,   2.32000,
,,,0.000503250000,   2.32000,
,,,0.000503251000,   2.32000,
,,,0.000503252000,   2.32000,
,,,0.000503253000,   2.32000,
,,,0.000503254000,   2.28000,
,,,0.000503255000,   2.32000,
,,,0.000503256000,   2.32000,
,,,0.000503257000,   2.32000,
,,,0.000503258000,   2.36000,
,,,0.000503259000,   2.36000,
,,,0.000503260000,   2.36000,
,,,0.000503261000,   2.36000,
,,,0.000503262000,   2.32000,
,,,0.000503263000,   2.32000,
,,,0.000503264000,   2.36000,
,,,0.000503265000,   2.36000,
,,,0.000503266000,   2.40000,
,,,0.000503267000,   2.44000,
,,,0.000503268000,   2.40000,
,,,0.000503269000,   2.40000,
,,,0.000503270000,   2.36000,
,,,0.000503271000,   2.40000,
,,,0.000503272000,   2.44000,
,,,0.000503273000,   2.40000,
,,,0.000503274000,   2.40000,
,,,0.000503275000,   2.40000,
,,,0.000503276000,   2.40000,
,,,0.000503277000,   2.48000,
,,,0.000503278000,   2.44000,
,,,0.000503279000,   2.40000,
,,,0.000503280000,   2.44000,
,,,0.000503281000,   2.44000,
,,,0.000503282000,   2.44000,
,,,0.000503283000,   2.40000,
,,,0.000503284000,   2.40000,
,,,0.000503285000,   2.44000,
,,,0.000503286000,   2.44000,
,,,0.000503287000,   2.44000,
,,,0.000503288000,   2.48000,
,,,0.000503289000,   2.44000,
,,,0.000503290000,   2.44000,
,,,0.000503291000,   2.48000,
,,,0.000503292000,   2.48000,
,,,0.000503293000,   2.44000,
,,,0.000503294000,   2.44000,
,,,0.000503295000,   2.48000,
,,,0.000503296000,   2.48000,
,,,0.000503297000,   2.48000,
,,,0.000503298000,   2.44000,
,,,0.000503299000,   2.44000,
,,,0.000503300000,   2.52000,
,,,0.000503301000,   2.48000,
,,,0.000503302000,   2.52000,
,,,0.000503303000,   2.52000,
,,,0.000503304000,   2.52000,
,,,0.000503305000,   2.48000,
,,,0.000503306000,   2.52000,
,,,0.000503307000,   2.52000,
,,,0.000503308000,   2.48000,
,,,0.000503309000,   2.48000,
,,,0.000503310000,   2.48000,
,,,0.000503311000,   2.52000,
,,,0.000503312000,   2.48000,
,,,0.000503313000,   2.48000,
,,,0.000503314000,   2.48000,
,,,0.000503315000,   2.48000,
,,,0.000503316000,   2.48000,
,,,0.000503317000,   2.52000,
,,,0.000503318000,   2.52000,
,,,0.000503319000,   2.52000,
,,,0.000503320000,   2.48000,
,,,0.000503321000,   2.52000,
,,,0.000503322000,   2.48000,
,,,0.000503323000,   2.48000,
,,,0.000503324000,   2.48000,
,,,0.000503325000,   2.52000,
,,,0.000503326000,   2.48000,
,,,0.000503327000,   2.48000,
,,,0.000503328000,   2.48000,
,,,0.000503329000,   2.48000,
,,,0.000503330000,   2.52000,
,,,0.000503331000,   2.52000,
,,,0.000503332000,   2.52000,
,,,0.000503333000,   2.52000,
,,,0.000503334000,   2.52000,
,,,0.000503335000,   2.52000,
,,,0.000503336000,   2.52000,
,,,0.000503337000,   2.52000,
,,,0.000503338000,   2.52000,
,,,0.000503339000,   2.52000,
,,,0.000503340000,   2.48000,
,,,0.000503341000,   2.48000,
,,,0.000503342000,   2.48000,
,,,0.000503343000,   2.52000,
,,,0.000503344000,   2.52000,
,,,0.000503345000,   2.52000,
,,,0.000503346000,   2.52000,
,,,0.000503347000,   2.52000,
,,,0.000503348000,   2.52000,
,,,0.000503349000,   2.52000,
,,,0.000503350000,   2.52000,
,,,0.000503351000,   2.48000,
,,,0.000503352000,   2.48000,
,,,0.000503353000,   2.48000,
,,,0.000503354000,   2.48000,
,,,0.000503355000,   2.56000,
,,,0.000503356000,   2.52000,
,,,0.000503357000,   2.48000,
,,,0.000503358000,   2.52000,
,,,0.000503359000,   2.52000,
,,,0.000503360000,   2.52000,
,,,0.000503361000,   2.52000,
,,,0.000503362000,   2.52000,
,,,0.000503363000,   2.52000,
,,,0.000503364000,   2.52000,
,,,0.000503365000,   2.56000,
,,,0.000503366000,   2.52000,
,,,0.000503367000,   2.52000,
,,,0.000503368000,   2.52000,
,,,0.000503369000,   2.48000,
,,,0.000503370000,   2.56000,
,,,0.000503371000,   2.56000,
,,,0.000503372000,   2.48000,
,,,0.000503373000,   2.56000,
,,,0.000503374000,   2.52000,
,,,0.000503375000,   2.56000,
,,,0.000503376000,   2.52000,
,,,0.000503377000,   2.56000,
,,,0.000503378000,   2.52000,
,,,0.000503379000,   2.52000,
,,,0.000503380000,   2.52000,
,,,0.000503381000,   2.52000,
,,,0.000503382000,   2.52000,
,,,0.000503383000,   2.52000,
,,,0.000503384000,   2.56000,
,,,0.000503385000,   2.52000,
,,,0.000503386000,   2.56000,
,,,0.000503387000,   2.52000,
,,,0.000503388000,   2.48000,
,,,0.000503389000,   2.52000,
,,,0.000503390000,   2.52000,
,,,0.000503391000,   2.52000,
,,,0.000503392000,   2.48000,
,,,0.000503393000,   2.52000,
,,,0.000503394000,   2.52000,
,,,0.000503395000,   2.56000,
,,,0.000503396000,   2.56000,
,,,0.000503397000,   2.52000,
,,,0.000503398000,   2.52000,
,,,0.000503399000,   2.52000,
,,,0.000503400000,   2.48000,
,,,0.000503401000,   2.52000,
,,,0.000503402000,   2.56000,
,,,0.000503403000,   2.52000,
